…
# Split into words
by_chapter_word <- by_chapter %>%
  unnest_tokens(word, text)

# Find document-word counts
word_counts <- by_chapter_word %>%
  anti_join(stop_words) %>%
  count(document, word, sort = TRUE) %>%
  ungroup()

word_counts
```

```
## # A tibble: 104,721 × 3
##                    document    word     n
##                       <chr>   <chr> <int>
## 1     Great Expectations_57     joe    88
## 2      Great Expectations_7     joe    70
## 3     Great Expectations_17   biddy    63
## 4     Great Expectations_27     joe    58
## 5     Great Expectations_38 estella    58
## 6      Great Expectations_2     joe    56
## 7     Great Expectations_23  pocket    53
## 8     Great Expectations_15     joe    50
## 9     Great Expectations_18     joe    50
## 10 The War of the Worlds_16 brother    50
## # ... with 104,711 more rows
```
…
This step fits an LDA model, and returns an object containing the full details of the fit, such as how words are associated with topics and how topics are associated with documents. Fitting the model was the "easy part": the remainder of the analysis will involve exploring and interpreting the model using tidying functions.

### Tidying an LDA model

In Chapter \ref{dtm} we introduced the `tidy()` method, originally from the [broom package](https://github.com/dgrtwo/broom), for tidying model objects. The tidytext package provides this method for extracting the per-topic-per-word probabilities, called $\beta$ ("beta"), from the model.


```r
chapters_lda_td <- tidy(chapters_lda)
chapters_lda_td
```

```
## # A tibble: 72,860 × 3
##    topic    term         beta
##    <int>   <chr>        <dbl>
## 1      1     joe 5.830326e-17
## 2      2     joe 3.194447e-57
## 3      3     joe 4.162676e-24
## 4      4     joe 1.445030e-02
## 5      1   biddy 7.846976e-27
## 6      2   biddy 4.672244e-69
## 7      3   biddy 2.259711e-46
## 8      4   biddy 4.767972e-03
## 9      1 estella 3.827272e-06
## 10     2 estella 5.316964e-65
## # ... with 72,850 more rows
```
…
## Per-document classification

Each chapter was a "document" in this analysis. Thus, we may want to know which topics are associated with each document. Can we put the chapters back together in the correct books?

We already examined the per-word-per-topic probabilities returned by `tidy()`. But we can also examine the per-document-per-topic probabilities, called $$\gamma$$ ("gamma"), using the `matrix = "gamma"` argument.


```r
chapters_lda_gamma <- tidy(chapters_lda, matrix = "gamma")
chapters_lda_gamma
```

```
## # A tibble: 772 × 3
##                    document topic        gamma
##                       <chr> <int>        <dbl>
## 1     Great Expectations_57     1 1.351886e-05
## 2      Great Expectations_7     1 1.470726e-05
## 3     Great Expectations_17     1 2.117127e-05
## 4     Great Expectations_27     1 1.919746e-05
## 5     Great Expectations_38     1 3.544403e-01
## 6      Great Expectations_2     1 1.723723e-05
## 7     Great Expectations_23     1 5.507241e-01
## 8     Great Expectations_15     1 1.682503e-02
## 9     Great Expectations_18     1 1.272044e-05
## 10 The War of the Worlds_16     1 1.084337e-05
## # ... with 762 more rows
```
…
Now that we have these document classifiations, we can see how well our unsupervised learning did at distinguishing the four books. We'd expect that chapters within a book would be found to be mostly (or entirely), generated from the corresponding topic.

First we re-separate the document name into title and chapter, after which we can visualize the per-document-per-topic probability for each (Figure \ref{fig:chaptersldagamma}). 


```r
chapters_lda_gamma <- chapters_lda_gamma %>%
  separate(document, c("title", "chapter"), sep = "_", convert = TRUE)

chapters_lda_gamma
```

```
## # A tibble: 772 × 4
##                    title chapter topic        gamma
## *                  <chr>   <int> <int>        <dbl>
## 1     Great Expectations      57     1 1.351886e-05
## 2     Great Expectations       7     1 1.470726e-05
## 3     Great Expectations      17     1 2.117127e-05
## 4     Great Expectations      27     1 1.919746e-05
## 5     Great Expectations      38     1 3.544403e-01
## 6     Great Expectations       2     1 1.723723e-05
## 7     Great Expectations      23     1 5.507241e-01
## 8     Great Expectations      15     1 1.682503e-02
## 9     Great Expectations      18     1 1.272044e-05
## 10 The War of the Worlds      16     1 1.084337e-05
## # ... with 762 more rows
```
…
It does look like some chapters from Great Expectations (which should be topic 4) were somewhat associated with other topics. Are there any cases where the topic most associated with a chapter belonged to another book? First we'd find the topic that was most associated with each chapter using `top_n()`, which is effectively the "classification" of that chapter.


```r
chapter_classifications <- chapters_lda_gamma %>%
  group_by(title, chapter) %>%
  top_n(1, gamma) %>%
  ungroup()

chapter_classifications
```

```
## # A tibble: 193 × 4
##                  title chapter topic     gamma
##                  <chr>   <int> <int>     <dbl>
## 1   Great Expectations      23     1 0.5507241
## 2  Pride and Prejudice      43     1 0.9999610
## 3  Pride and Prejudice      18     1 0.9999654
## 4  Pride and Prejudice      45     1 0.9999038
## 5  Pride and Prejudice      16     1 0.9999466
## 6  Pride and Prejudice      29     1 0.9999300
## 7  Pride and Prejudice      10     1 0.9999203
## 8  Pride and Prejudice       8     1 0.9999134
## 9  Pride and Prejudice      56     1 0.9999337
## 10 Pride and Prejudice      47     1 0.9999506
## # ... with 183 more rows
```
…
## By word assignments: `augment`

One step that LDA performs is assigning each word in each document to a topic. The more words in a document are assigned to that topic, generally, the more weight (`gamma`) will go on that document-topic classification.

We may want to take the original document-word pairs and find which words in each document were assigned to which topic. This is the job of the `augment()` function, which also originated in the broom package as a way of tidying model output. While `tidy()` retrieves the statistical components of the model, `augment()` uses a model to add information to each observation in the original data.


```r
assignments <- augment(chapters_lda, data = chapters_dtm)
assignments
```

```
## # A tibble: 104,721 × 4
##                 document  term count .topic
##                    <chr> <chr> <dbl>  <dbl>
## 1  Great Expectations_57   joe    88      4
## 2   Great Expectations_7   joe    70      4
## 3  Great Expectations_17   joe     5      4
## 4  Great Expectations_27   joe    58      4
## 5   Great Expectations_2   joe    56      4
## 6  Great Expectations_23   joe     1      4
## 7  Great Expectations_15   joe    50      4
## 8  Great Expectations_18   joe    50      4
## 9   Great Expectations_9   joe    44      4
## 10 Great Expectations_13   joe    40      4
## # ... with 104,711 more rows
```

This returns a tidy data frame of book-term counts, but adds an extra column: `.topic`, with the topic each term was assigned to within each document. (Extra columns added by `augment` always start with `.`, to prevent overwriting existing columns). We can combine this assignments with the consensus book titles to find which words were incorrectly classified.


```r
assignments <- assignments %>%
  separate(document, c("title", "chapter"), sep = "_", convert = TRUE) %>%
  inner_join(book_topics, by = c(".topic" = "topic"))

assignments
```

```
## # A tibble: 104,721 × 6
##                 title chapter  term count .topic          consensus
##                 <chr>   <int> <chr> <dbl>  <dbl>              <chr>
## 1  Great Expectations      57   joe    88      4 Great Expectations
## 2  Great Expectations       7   joe    70      4 Great Expectations
## 3  Great Expectations      17   joe     5      4 Great Expectations
## 4  Great Expectations      27   joe    58      4 Great Expectations
## 5  Great Expectations       2   joe    56      4 Great Expectations
## 6  Great Expectations      23   joe     1      4 Great Expectations
## 7  Great Expectations      15   joe    50      4 Great Expectations
## 8  Great Expectations      18   joe    50      4 Great Expectations
## 9  Great Expectations       9   joe    44      4 Great Expectations
## 10 Great Expectations      13   joe    40      4 Great Expectations
## # ... with 104,711 more rows
```
…
We notice that almost all the words for *Pride and Prejudice*, *Twenty Thousand Leagues Under the Sea*, and *War of the Worlds* were correctly assigned, while *Great Expectations* had a fair amount of misassignment (which, as we saw above, led to two chapters getting misclassified).

What were the most commonly mistaken words?


```r
wrong_words <- assignments %>%
  filter(title != consensus)

wrong_words
```

```
## # A tibble: 4,535 × 6
##                                    title chapter     term count .topic
##                                    <chr>   <int>    <chr> <dbl>  <dbl>
## 1                     Great Expectations      38  brother     2      1
## 2                     Great Expectations      22  brother     4      1
## 3                     Great Expectations      23     miss     2      1
## 4                     Great Expectations      22     miss    23      1
## 5  Twenty Thousand Leagues under the Sea       8     miss     1      1
## 6                     Great Expectations      31     miss     1      1
## 7                     Great Expectations       5 sergeant    37      1
## 8                     Great Expectations      46  captain     1      2
## 9                     Great Expectations      32  captain     1      2
## 10                 The War of the Worlds      17  captain     5      2
##                                consensus
##                                    <chr>
## 1                    Pride and Prejudice
## 2                    Pride and Prejudice
## 3                    Pride and Prejudice
## 4                    Pride and Prejudice
## 5                    Pride and Prejudice
## 6                    Pride and Prejudice
## 7                    Pride and Prejudice
## 8  Twenty Thousand Leagues under the Sea
## 9  Twenty Thousand Leagues under the Sea
## 10 Twenty Thousand Leagues under the Sea
## # ... with 4,525 more rows
```

```r
wrong_words %>%
  count(title, consensus, term, wt = count) %>%
  ungroup() %>%
  arrange(desc(n))
```

```
## # A tibble: 3,500 × 4
##                 title             consensus     term     n
##                 <chr>                 <chr>    <chr> <dbl>
## 1  Great Expectations   Pride and Prejudice     love    44
## 2  Great Expectations   Pride and Prejudice sergeant    37
## 3  Great Expectations   Pride and Prejudice     lady    32
## 4  Great Expectations   Pride and Prejudice     miss    26
## 5  Great Expectations The War of the Worlds     boat    25
## 6  Great Expectations   Pride and Prejudice   father    19
## 7  Great Expectations The War of the Worlds    water    19
## 8  Great Expectations   Pride and Prejudice     baby    18
## 9  Great Expectations   Pride and Prejudice  flopson    18
## 10 Great Expectations   Pride and Prejudice   family    16
## # ... with 3,490 more rows
```
…
mallet_model <- MalletLDA(num.topics = 4)
mallet_model$loadDocuments(docs)
mallet_model$train(100)
```

Once the model is created, however, are almost identical to the tidiers described in this rest of this chapter.


```r
# word-topic pairs
tidy(mallet_model)
```

```
## # A tibble: 71,064 × 3
##    topic    term         beta
##    <int>   <chr>        <dbl>
## 1      1 limping 2.624902e-07
## 2      2 limping 2.888532e-07
## 3      3 limping 2.385345e-07
## 4      4 limping 9.847097e-05
## 5      1  pirate 2.624902e-07
## 6      2  pirate 2.888532e-07
## 7      3  pirate 2.385345e-07
## 8      4  pirate 9.847097e-05
## 9      1  gibbet 2.624902e-07
## 10     2  gibbet 2.888532e-07
## # ... with 71,054 more rows
```

```r
# document-topic pairs
tidy(mallet_model, matrix = "gamma")
```

```
## # A tibble: 772 × 3
##                 document topic     gamma
##                    <chr> <int>     <dbl>
## 1   Great Expectations_1     1 0.2387737
## 2  Great Expectations_10     1 0.3073366
## 3  Great Expectations_11     1 0.3375767
## 4  Great Expectations_12     1 0.3431721
## 5  Great Expectations_13     1 0.3205056
## 6  Great Expectations_14     1 0.3084016
## 7  Great Expectations_15     1 0.2118029
## 8  Great Expectations_16     1 0.2525381
## 9  Great Expectations_17     1 0.3800562
## 10 Great Expectations_18     1 0.3459066
## # ... with 762 more rows
```

```r
# column needs to be named "term" for "augment"
term_counts <- rename(word_counts, term = word)
augment(mallet_model, term_counts)
```

```
## # A tibble: 104,721 × 4
##                    document    term     n .topic
##                       <chr>   <chr> <int>  <int>
## 1     Great Expectations_57     joe    88      4
## 2      Great Expectations_7     joe    70      4
## 3     Great Expectations_17   biddy    63      4
## 4     Great Expectations_27     joe    58      4
## 5     Great Expectations_38 estella    58      4
## 6      Great Expectations_2     joe    56      4
## 7     Great Expectations_23  pocket    53      4
## 8     Great Expectations_15     joe    50      4
## 9     Great Expectations_18     joe    50      4
## 10 The War of the Worlds_16 brother    50      1
## # ... with 104,711 more rows
```
