…
### Wrangling and tidying the data

Let's set up separate tidy data frames for title, description, and keyword, keeping the dataset ids for each so that we can connect them later in the analysis if necessary.


```r
library(dplyr)

nasa_title <- data_frame(id = metadata$dataset$`_id`$`$oid`, 
                         title = metadata$dataset$title)
nasa_title
```

```
## # A tibble: 32,089 × 2
##                          id                                               title
##                       <chr>                                               <chr>
## 1  55942a57c63a7fe59b495a77             15 Minute Stream Flow Data: USGS (FIFE)
## 2  55942a57c63a7fe59b495a78             15 Minute Stream Flow Data: USGS (FIFE)
## 3  55942a58c63a7fe59b495a79             15 Minute Stream Flow Data: USGS (FIFE)
## 4  55942a58c63a7fe59b495a7a 2000 Pilot Environmental Sustainability Index (ESI)
## 5  55942a58c63a7fe59b495a7b 2000 Pilot Environmental Sustainability Index (ESI)
## 6  55942a58c63a7fe59b495a7c 2000 Pilot Environmental Sustainability Index (ESI)
## 7  55942a58c63a7fe59b495a7d       2001 Environmental Sustainability Index (ESI)
## 8  55942a58c63a7fe59b495a7e       2001 Environmental Sustainability Index (ESI)
## 9  55942a58c63a7fe59b495a7f       2001 Environmental Sustainability Index (ESI)
## 10 55942a58c63a7fe59b495a80       2001 Environmental Sustainability Index (ESI)
## # ... with 32,079 more rows
```
…
Now we can build the tidy data frame for the keywords. For this one, we need to use `unnest()` from tidyr, because they are in a list-column.


```r
library(tidyr)

nasa_keyword <- data_frame(id = metadata$dataset$`_id`$`$oid`, 
                           keyword = metadata$dataset$keyword) %>%
  unnest(keyword)

nasa_keyword
```

```
## # A tibble: 126,814 × 2
##                          id       keyword
##                       <chr>         <chr>
## 1  55942a57c63a7fe59b495a77 EARTH SCIENCE
## 2  55942a57c63a7fe59b495a77   HYDROSPHERE
## 3  55942a57c63a7fe59b495a77 SURFACE WATER
## 4  55942a57c63a7fe59b495a78 EARTH SCIENCE
## 5  55942a57c63a7fe59b495a78   HYDROSPHERE
## 6  55942a57c63a7fe59b495a78 SURFACE WATER
## 7  55942a58c63a7fe59b495a79 EARTH SCIENCE
## 8  55942a58c63a7fe59b495a79   HYDROSPHERE
## 9  55942a58c63a7fe59b495a79 SURFACE WATER
## 10 55942a58c63a7fe59b495a7a EARTH SCIENCE
## # ... with 126,804 more rows
```
…
nasa_desc <- nasa_desc %>% 
  unnest_tokens(word, desc) %>% 
  anti_join(stop_words)
```

These are now in the tidy text format that we have been working with throughout this book, with one token (word, in this case) per row; let's take a look before we move on in our analysis.


```r
nasa_title
```

```
## # A tibble: 210,914 × 2
##                          id         word
##                       <chr>        <chr>
## 1  56d07ee5a759fdadc44e5923       marble
## 2  56d07ee5a759fdadc44e5923         epic
## 3  56d07c16a759fdadc44e5922       fitara
## 4  56d07c16a759fdadc44e5922         ocio
## 5  56cf5b00a759fdadc44e5849 implementing
## 6  56cf5b00a759fdadc44e5846     receding
## 7  56cf5b00a759fdadc44e5846    recursive
## 8  56cf5b00a759fdadc44e5840   complaints
## 9  56cf5b00a759fdadc44e583b        score
## 10 56cf5b00a759fdadc44e583a          fix
## # ... with 210,904 more rows
```

```r
nasa_desc
```

```
## # A tibble: 2,677,811 × 2
##                          id            word
##                       <chr>           <chr>
## 1  56d07c16a759fdadc44e5922          fitara
## 2  56d07c16a759fdadc44e5922            ocio
## 3  56cf5b00a759fdadc44e584a   degradation's
## 4  56cf5b00a759fdadc44e5847         dchwp1s
## 5  56cf5b00a759fdadc44e5847        dchwp1sp
## 6  56cf5b00a759fdadc44e5847          dchwdp
## 7  56cf5b00a759fdadc44e5847         dchwsnf
## 8  56cf5b00a759fdadc44e5847         dchwssf
## 9  56cf5b00a759fdadc44e5847        bursting
## 10 56cf5b00a759fdadc44e5847 consequentially
## # ... with 2,677,801 more rows
```


### Some initial simple exploration

What are the most common words in the NASA dataset titles? We can use `count()` from dplyr to check this out.


```r
nasa_title %>%
  count(word, sort = TRUE)
```

```
## # A tibble: 11,614 × 2
##       word     n
##      <chr> <int>
## 1  project  7735
## 2     data  3354
## 3        1  2841
## 4    level  2400
## 5   global  1809
## 6       v1  1478
## 7    daily  1397
## 8        3  1364
## 9     aura  1363
## 10      l2  1311
## # ... with 11,604 more rows
```

What about the descriptions?


```r
nasa_desc %>% 
  count(word, sort = TRUE)
```

```
## # A tibble: 35,940 × 2
##          word     n
##         <chr> <int>
## 1        data 68871
## 2       modis 24420
## 3      global 23028
## 4           2 16599
## 5           1 15770
## 6      system 15480
## 7     product 14780
## 8        aqua 14738
## 9       earth 14373
## 10 resolution 13879
## # ... with 35,930 more rows
```
…
What are the most common keywords?


```r
nasa_keyword %>% 
  group_by(keyword) %>% 
  count(sort = TRUE)
```

```
## # A tibble: 1,774 × 2
##                    keyword     n
##                      <chr> <int>
## 1            EARTH SCIENCE 14362
## 2                  Project  7452
## 3               ATMOSPHERE  7321
## 4              Ocean Color  7268
## 5             Ocean Optics  7268
## 6                   Oceans  7268
## 7                completed  6452
## 8  ATMOSPHERIC WATER VAPOR  3142
## 9                   OCEANS  2765
## 10            LAND SURFACE  2720
## # ... with 1,764 more rows
```
…
We can use `pairwise_count()` from the widyr package to count how many times each pair of words occurs together in a title or description field.


```r
library(widyr)

title_word_pairs <- nasa_title %>% 
  pairwise_count(word, id, sort = TRUE, upper = FALSE)

title_word_pairs
```

```
## # A tibble: 156,689 × 3
##     item1   item2     n
##     <chr>   <chr> <dbl>
## 1  system project   796
## 2     lba     eco   683
## 3    airs    aqua   641
## 4   level    aqua   623
## 5   level    airs   612
## 6    aura     omi   607
## 7  global    grid   597
## 8  global   daily   574
## 9    data  boreas   551
## 10 ground     gpm   550
## # ... with 156,679 more rows
```

These are the pairs of words that occur together most often in title fields. Some of these words are obviously acronyms used within NASA, and we see how often words like "project" and "system" are used.


```r
desc_word_pairs <- nasa_desc %>% 
  pairwise_count(word, id, sort = TRUE, upper = FALSE)

desc_word_pairs
```

```
## # A tibble: 10,889,084 × 3
##         item1      item2     n
##         <chr>      <chr> <dbl>
## 1        data     global  9864
## 2        data resolution  9302
## 3  instrument resolution  8189
## 4        data    surface  8180
## 5      global resolution  8139
## 6        data instrument  7994
## 7        data     system  7870
## 8  resolution      bands  7584
## 9        data      earth  7576
## 10      orbit resolution  7462
## # ... with 10,889,074 more rows
```
…
### Networks of Keywords

Next, let's make a network of the keywords in Figure \@ref(fig:plotcounts) to see which keywords commonly occur together in the same datasets.


```r
keyword_pairs <- nasa_keyword %>% 
  pairwise_count(keyword, id, sort = TRUE, upper = FALSE)

keyword_pairs
```

```
## # A tibble: 13,390 × 3
##            item1                   item2     n
##            <chr>                   <chr> <dbl>
## 1         OCEANS            OCEAN OPTICS  7324
## 2  EARTH SCIENCE              ATMOSPHERE  7318
## 3         OCEANS             OCEAN COLOR  7270
## 4   OCEAN OPTICS             OCEAN COLOR  7270
## 5        PROJECT               COMPLETED  6450
## 6  EARTH SCIENCE ATMOSPHERIC WATER VAPOR  3142
## 7     ATMOSPHERE ATMOSPHERIC WATER VAPOR  3142
## 8  EARTH SCIENCE                  OCEANS  2762
## 9  EARTH SCIENCE            LAND SURFACE  2718
## 10 EARTH SCIENCE               BIOSPHERE  2448
## # ... with 13,380 more rows
```
…
To examine the relationships among keywords in a different way, we can find the correlation among the keywords as described in Chapter \@ref(ngrams). This looks for those keywords that are more likely to occur together than with other keywords in a description field.


```r
keyword_cors <- nasa_keyword %>% 
  group_by(keyword) %>%
  filter(n() >= 50) %>%
  pairwise_cor(keyword, id, sort = TRUE, upper = FALSE)

keyword_cors
```

```
## # A tibble: 7,875 × 3
##                  item1       item2 correlation
##                  <chr>       <chr>       <dbl>
## 1            KNOWLEDGE     SHARING   1.0000000
## 2             DASHLINK        AMES   1.0000000
## 3             SCHEDULE  EXPEDITION   1.0000000
## 4           TURBULENCE      MODELS   0.9971871
## 5                APPEL   KNOWLEDGE   0.9967945
## 6                APPEL     SHARING   0.9967945
## 7         OCEAN OPTICS OCEAN COLOR   0.9952123
## 8  ATMOSPHERIC SCIENCE       CLOUD   0.9938681
## 9               LAUNCH    SCHEDULE   0.9837078
## 10              LAUNCH  EXPEDITION   0.9837078
## # ... with 7,865 more rows
```
…
What are the highest tf-idf words in the NASA description fields?


```r
desc_tf_idf %>% 
  arrange(-tf_idf)
```

```
## # A tibble: 1,913,224 × 6
##                          id                                          word     n    tf       idf
##                       <chr>                                         <chr> <int> <dbl>     <dbl>
## 1  55942a7cc63a7fe59b49774a                                           rdr     1     1 10.375052
## 2  55942ac9c63a7fe59b49b688 palsar_radiometric_terrain_corrected_high_res     1     1 10.375052
## 3  55942ac9c63a7fe59b49b689  palsar_radiometric_terrain_corrected_low_res     1     1 10.375052
## 4  55942a7bc63a7fe59b4976ca                                          lgrs     1     1  8.765615
## 5  55942a7bc63a7fe59b4976d2                                          lgrs     1     1  8.765615
## 6  55942a7bc63a7fe59b4976e3                                          lgrs     1     1  8.765615
## 7  55942a7dc63a7fe59b497820                                           mri     1     1  8.583293
## 8  55942ad8c63a7fe59b49cf6c                      template_proddescription     1     1  8.295611
## 9  55942ad8c63a7fe59b49cf6d                      template_proddescription     1     1  8.295611
## 10 55942ad8c63a7fe59b49cf6e                      template_proddescription     1     1  8.295611
## # ... with 1,913,214 more rows, and 1 more variables: tf_idf <dbl>
```
…
word_counts <- nasa_desc %>%
  anti_join(my_stop_words) %>%
  count(id, word, sort = TRUE) %>%
  ungroup()

word_counts
```

```
## # A tibble: 1,895,310 × 3
##                          id     word     n
##                       <chr>    <chr> <int>
## 1  55942a8ec63a7fe59b4986ef     suit    82
## 2  55942a8ec63a7fe59b4986ef    space    69
## 3  56cf5b00a759fdadc44e564a     data    41
## 4  56cf5b00a759fdadc44e564a     leak    40
## 5  56cf5b00a759fdadc44e564a     tree    39
## 6  55942a8ec63a7fe59b4986ef pressure    34
## 7  55942a8ec63a7fe59b4986ef   system    34
## 8  55942a89c63a7fe59b4982d9       em    32
## 9  55942a8ec63a7fe59b4986ef       al    32
## 10 55942a8ec63a7fe59b4986ef    human    31
## # ... with 1,895,300 more rows
```
…
This is a stochastic algorithm that could have different results depending on where the algorithm starts, so we need to specify a `seed` for reproducibility as shown here.

### Interpreting the topic model

Now that we have built the model, let's `tidy()` the results of the model, i.e., construct a tidy data frame that summarizes the results of the model. The tidytext package includes a tidying method for LDA models from the topicmodels package.


```r
tidy_lda <- tidy(desc_lda)

tidy_lda
```

```
## # A tibble: 861,624 × 3
##    topic  term          beta
##    <int> <chr>         <dbl>
## 1      1  suit 1.003981e-121
## 2      2  suit 2.630614e-145
## 3      3  suit  1.916240e-79
## 4      4  suit  6.715725e-45
## 5      5  suit  1.738334e-85
## 6      6  suit  7.692116e-84
## 7      7  suit  3.283851e-04
## 8      8  suit  3.738586e-20
## 9      9  suit  4.846953e-15
## 10    10  suit  4.765471e-10
## # ... with 861,614 more rows
```
…
What is each topic about? Let's examine the top 10 terms for each topic.


```r
top_terms <- tidy_lda %>%
  group_by(topic) %>%
  top_n(10, beta) %>%
  ungroup() %>%
  arrange(topic, -beta)

top_terms
```

```
## # A tibble: 240 × 3
##    topic        term       beta
##    <int>       <chr>      <dbl>
## 1      1        data 0.04488960
## 2      1        soil 0.03676198
## 3      1    moisture 0.02954555
## 4      1        amsr 0.02437751
## 5      1         sst 0.01684001
## 6      1  validation 0.01322457
## 7      1 temperature 0.01317075
## 8      1     surface 0.01290046
## 9      1    accuracy 0.01225131
## 10     1         set 0.01155372
## # ... with 230 more rows
```
…
We can see what a dominant word "data" is in these description texts. In addition, there are meaningful differences between these collections of terms, from terms about soil, forests, and biomass in topic 12 to terms about design, systems, and technology in topic 21. The topic modeling process has identified groupings of terms that we can understand as human readers of these description fields.

We just explored which words are associated with which topics. Next, let’s examine which topics are associated with which description fields (i.e., documents). We will look at a different probability for this, $\gamma$, the probability that each document belongs in each topic, again using the `tidy` verb.


```r
lda_gamma <- tidy(desc_lda, matrix = "gamma")

lda_gamma
```

```
## # A tibble: 768,072 × 3
##                    document topic        gamma
##                       <chr> <int>        <dbl>
## 1  55942a8ec63a7fe59b4986ef     1 6.453820e-06
## 2  56cf5b00a759fdadc44e564a     1 1.158393e-05
## 3  55942a89c63a7fe59b4982d9     1 4.917441e-02
## 4  56cf5b00a759fdadc44e55cd     1 2.249043e-05
## 5  55942a89c63a7fe59b4982c6     1 6.609442e-05
## 6  55942a86c63a7fe59b498077     1 5.666520e-05
## 7  56cf5b00a759fdadc44e56f8     1 4.752082e-05
## 8  55942a8bc63a7fe59b4984b5     1 4.308534e-05
## 9  55942a6ec63a7fe59b496bf7     1 4.408626e-05
## 10 55942a8ec63a7fe59b4986f6     1 2.878188e-05
## # ... with 768,062 more rows
```
…
This plot displays the type of information we used to choose how many topics for our topic modeling procedure. When we tried options higher than 24 (such as 32 or 64), the distributions for $\gamma$ started to look very flat toward $\gamma = 1$; documents were not getting sorted into topics very well.

### Connecting topic modeling with keywords

Let’s connect these topic models with the keywords and see what relationships we can find. We can `full_join()` this to the human-tagged keywords and discover which keywords are associated with which topic.


```r
lda_gamma <- full_join(lda_gamma, nasa_keyword, by = c("document" = "id"))

lda_gamma
```

```
## # A tibble: 3,037,671 × 4
##                    document topic        gamma                     keyword
##                       <chr> <int>        <dbl>                       <chr>
## 1  55942a8ec63a7fe59b4986ef     1 6.453820e-06        JOHNSON SPACE CENTER
## 2  55942a8ec63a7fe59b4986ef     1 6.453820e-06                     PROJECT
## 3  55942a8ec63a7fe59b4986ef     1 6.453820e-06                   COMPLETED
## 4  56cf5b00a759fdadc44e564a     1 1.158393e-05                    DASHLINK
## 5  56cf5b00a759fdadc44e564a     1 1.158393e-05                        AMES
## 6  56cf5b00a759fdadc44e564a     1 1.158393e-05                        NASA
## 7  55942a89c63a7fe59b4982d9     1 4.917441e-02 GODDARD SPACE FLIGHT CENTER
## 8  55942a89c63a7fe59b4982d9     1 4.917441e-02                     PROJECT
## 9  55942a89c63a7fe59b4982d9     1 4.917441e-02                   COMPLETED
## 10 56cf5b00a759fdadc44e55cd     1 2.249043e-05                    DASHLINK
## # ... with 3,037,661 more rows
```

Now we can use `filter()` to keep only the document-topic entries that have probabilities ($\gamma$) greater than some cut-off value; let's use 0.9.


```r
top_keywords <- lda_gamma %>% 
  filter(gamma > 0.9) %>% 
  group_by(topic, keyword) %>% 
  count(keyword, sort = TRUE)

top_keywords
```

```
## Source: local data frame [1,022 x 3]
## Groups: topic [24]
## 
##    topic       keyword     n
##    <int>         <chr> <int>
## 1     13   OCEAN COLOR  4480
## 2     13  OCEAN OPTICS  4480
## 3     13        OCEANS  4480
## 4     11   OCEAN COLOR  1216
## 5     11  OCEAN OPTICS  1216
## 6     11        OCEANS  1216
## 7      9       PROJECT   926
## 8     12 EARTH SCIENCE   909
## 9      9     COMPLETED   834
## 10    16   OCEAN COLOR   768
## # ... with 1,012 more rows
```
…
