…
```
## Joining, by = "person"
```

```r
frequency
```

```
## Source: local data frame [25,210 x 5]
## Groups: person [2]
## 
##    person       word     n total        freq
##     <chr>      <chr> <int> <int>       <dbl>
## 1   Julia       t.co  2218 85215 0.026028281
## 2   Julia       http  1438 85215 0.016874963
## 3   David       t.co  1344 27338 0.049162338
## 4   David      https  1045 27338 0.038225181
## 5   Julia      https  1040 85215 0.012204424
## 6   David         rt   909 27338 0.033250421
## 7   Julia         rt   867 85215 0.010174265
## 8   Julia       time   568 85215 0.006665493
## 9   Julia selkie1970   565 85215 0.006630288
## 10  Julia    skedman   518 85215 0.006078742
## # ... with 25,200 more rows
```

This is a lovely, tidy data frame but we would actually like to plot those frequencies on the x- and y-axes of a plot, so we will need to use an `inner_join` and make a different dataframe.


```r
frequency <- inner_join(frequency %>% filter(person == "Julia") %>% rename(Julia = freq),
                        frequency %>% filter(person == "David") %>% rename(David = freq),
                        by = "word") %>% 
  ungroup() %>% select(word, Julia, David)
frequency
```

```
## # A tibble: 3,674 x 3
##     word       Julia        David
##    <chr>       <dbl>        <dbl>
## 1   t.co 0.026028281 0.0491623381
## 2   http 0.016874963 0.0150340186
## 3  https 0.012204424 0.0382251811
## 4     rt 0.010174265 0.0332504207
## 5   time 0.006665493 0.0035115956
## 6    day 0.005515461 0.0012071110
## 7   baby 0.004811360 0.0001463165
## 8   love 0.003555712 0.0017192187
## 9  house 0.003403157 0.0001097374
## 10   amp 0.003356217 0.0015363231
## # ... with 3,664 more rows
```
…
