…
What are the most common words?


```r
usenet_words %>%
  count(word, sort = TRUE)
```

```
## # A tibble: 63,937 × 2
##       word     n
##      <chr> <int>
## 1   people  3397
## 2     time  2569
## 3      god  1611
## 4   system  1571
## 5  subject  1312
## 6    lines  1188
## 7  program  1086
## 8  windows  1085
## 9      bit  1070
## 10   space  1062
## # ... with 63,927 more rows
```
…
```r
words_by_board <- usenet_words %>%
  count(board, word) %>%
  ungroup()
```


```r
words_by_board %>%
  group_by(board) %>%
  top_n(3)
```

```
## Source: local data frame [60 x 3]
## Groups: board [20]
## 
##                       board     word     n
##                       <chr>    <chr> <int>
## 1               alt.atheism      god   268
## 2               alt.atheism    jesus   129
## 3               alt.atheism   people   276
## 4             comp.graphics graphics   217
## 5             comp.graphics    image   169
## 6             comp.graphics  program   134
## 7   comp.os.ms-windows.misc      dos   194
## 8   comp.os.ms-windows.misc     file   232
## 9   comp.os.ms-windows.misc  windows   625
## 10 comp.sys.ibm.pc.hardware     card   237
## # ... with 50 more rows
```
…
## Term frequency and inverse document frequency: tf-idf

Some words are likely to be more common on particular boards. Let's try quantifying this using the tf-idf metric we learned in [Chapter 4](#tfidf).


```r
tf_idf <- words_by_board %>%
  bind_tf_idf(word, board, n) %>%
  arrange(desc(tf_idf))

tf_idf
```

```
## # A tibble: 166,528 × 6
##                       board           word     n          tf      idf     tf_idf
##                       <chr>          <chr> <int>       <dbl>    <dbl>      <dbl>
## 1  comp.sys.ibm.pc.hardware           scsi   483 0.018138801 1.203973 0.02183862
## 2           rec.motorcycles           bike   321 0.013750268 1.386294 0.01906192
## 3     talk.politics.mideast       armenian   440 0.007348275 2.302585 0.01692003
## 4                 sci.crypt     encryption   410 0.008311878 1.897120 0.01576863
## 5     talk.politics.mideast      armenians   396 0.006613447 2.302585 0.01522803
## 6          rec.sport.hockey            nhl   151 0.004291114 2.995732 0.01285503
## 7  comp.sys.ibm.pc.hardware            ide   208 0.007811326 1.609438 0.01257184
## 8        talk.politics.misc stephanopoulos   158 0.004175145 2.995732 0.01250762
## 9           rec.motorcycles          bikes    97 0.004155065 2.995732 0.01244746
## 10         rec.sport.hockey         hockey   265 0.007530762 1.609438 0.01212029
## # ... with 166,518 more rows
```
…
It's worth looking deeper to understand *why* some boards ended up more positive than others. For that, we can examine the total positive and negative contributions of each word.


```r
contributions <- usenet_words %>%
  inner_join(AFINN, by = "word") %>%
  group_by(word) %>%
  summarize(occurences = n(),
            contribution = sum(score))

contributions
```

```
## # A tibble: 1,891 × 3
##         word occurences contribution
##        <chr>      <int>        <int>
## 1    abandon         12          -24
## 2  abandoned         18          -36
## 3   abandons          3           -6
## 4  abduction          1           -2
## 5      abhor          3           -9
## 6   abhorred          1           -3
## 7  abhorrent          2           -6
## 8  abilities         16           32
## 9    ability        160          320
## 10    aboard          8            8
## # ... with 1,881 more rows
```
…
As a simple measure to reduce the role of randomness, we filtered out messages that had fewer than five words that contributed to sentiment.

What were the most positive messages?


```r
sentiment_messages %>%
  arrange(desc(sentiment))
```

```
## # A tibble: 3,385 × 4
##                      board     id sentiment words
##                      <chr>  <chr>     <dbl> <int>
## 1         rec.sport.hockey  53560  3.888889    18
## 2         rec.sport.hockey  53602  3.833333    30
## 3         rec.sport.hockey  53822  3.833333     6
## 4         rec.sport.hockey  53645  3.230769    13
## 5                rec.autos 102768  3.200000     5
## 6             misc.forsale  75965  3.000000     5
## 7             misc.forsale  76037  3.000000     5
## 8       rec.sport.baseball 104458  2.916667    12
## 9  comp.os.ms-windows.misc   9620  2.857143     7
## 10            misc.forsale  74787  2.833333     6
## # ... with 3,375 more rows
```
…
Looks like it's because the message uses the word "winner" a lot! How about the most negative message? Turns out it's also from the hockey site, but has a very different attitude.


```r
sentiment_messages %>%
  arrange(sentiment)
```

```
## # A tibble: 3,385 × 4
##                    board     id sentiment words
##                    <chr>  <chr>     <dbl> <int>
## 1       rec.sport.hockey  53907 -3.000000     6
## 2        sci.electronics  53899 -3.000000     5
## 3              rec.autos 101627 -2.833333     6
## 4          comp.graphics  37948 -2.800000     5
## 5         comp.windows.x  67204 -2.700000    10
## 6     talk.politics.guns  53362 -2.666667     6
## 7            alt.atheism  51309 -2.600000     5
## 8  comp.sys.mac.hardware  51513 -2.600000     5
## 9              rec.autos 102883 -2.600000     5
## 10       rec.motorcycles  72052 -2.600000     5
## # ... with 3,375 more rows
```
…
## N-grams

We can also examine the effect of words that are used in negation, like we did in [Chapter 5](#ngrams). Let's start by finding all the bigrams in the Usenet posts.


```r
usenet_bigrams <- cleaned_text %>%
  unnest_tokens(bigram, text, token = "ngrams", n = 2)

usenet_bigrams
```

```
## # A tibble: 1,762,089 × 3
##          board    id            bigram
##          <chr> <chr>             <chr>
## 1  alt.atheism 49960      archive name
## 2  alt.atheism 49960      name atheism
## 3  alt.atheism 49960 atheism resources
## 4  alt.atheism 49960     resources alt
## 5  alt.atheism 49960       alt atheism
## 6  alt.atheism 49960   atheism archive
## 7  alt.atheism 49960      archive name
## 8  alt.atheism 49960    name resources
## 9  alt.atheism 49960    resources last
## 10 alt.atheism 49960     last modified
## # ... with 1,762,079 more rows
```

Now let's count how many of these bigrams are used in each board.


```r
usenet_bigram_counts <- usenet_bigrams %>%
  count(board, bigram)

usenet_bigram_counts %>% 
  arrange(desc(n))
```

```
## Source: local data frame [1,006,415 x 3]
## Groups: board [20]
## 
##                     board bigram     n
##                     <chr>  <chr> <int>
## 1  soc.religion.christian of the  1141
## 2   talk.politics.mideast of the  1135
## 3   talk.politics.mideast in the   857
## 4               sci.space of the   684
## 5               sci.crypt of the   671
## 6      talk.politics.misc of the   645
## 7  soc.religion.christian in the   637
## 8      talk.religion.misc of the   630
## 9      talk.politics.guns of the   618
## 10            alt.atheism of the   474
## # ... with 1,006,405 more rows
```

Next, we can calculate tf-idf for the bigrams to find the ones that are important for each board.


```r
bigram_tf_idf <- usenet_bigram_counts %>%
  bind_tf_idf(bigram, board, n)

bigram_tf_idf %>%
  arrange(desc(tf_idf))
```

```
## Source: local data frame [1,006,415 x 6]
## Groups: board [20]
## 
##                       board            bigram     n          tf      idf      tf_idf
##                       <chr>             <chr> <int>       <dbl>    <dbl>       <dbl>
## 1        talk.politics.misc mr stephanopoulos   155 0.001477344 2.995732 0.004425728
## 2            comp.windows.x               n x   177 0.001917577 2.302585 0.004415384
## 3            comp.windows.x          x printf   130 0.001408390 2.995732 0.004219158
## 4           rec.motorcycles          the bike   104 0.001675663 2.302585 0.003858356
## 5  comp.sys.ibm.pc.hardware            scsi 2   107 0.001478983 2.302585 0.003405485
## 6            comp.windows.x            file x   104 0.001126712 2.995732 0.003375327
## 7     talk.politics.mideast     the armenians   169 0.001111988 2.995732 0.003331220
## 8          rec.sport.hockey               1 0   256 0.002733816 1.203973 0.003291440
## 9            comp.windows.x      output oname   100 0.001083377 2.995732 0.003245506
## 10           comp.windows.x            x char    98 0.001061709 2.995732 0.003180596
## # ... with 1,006,405 more rows
```
…
