Tidy Text Mining with R
…
We see that this dataset contains documents (each of them an AP article) and terms (words). Notice that this example DTM is 99% sparse.

If we want to analyze this with tidy tools, we need to turn it into a one-token-per-document-per-row data frame first. The broom package (Robinson et al. 2015) introduced the tidy verb, which takes a non-tidy object and turns it into a data frame. The tidytext package implements that method for DocumentTermClass objects:

library(dplyr)
library(tidytext)

ap_td <- tidy(AssociatedPress)
ap_td

## # A tibble: 302,031 × 3
##    document       term count
##       <int>      <chr> <dbl>
## 1         1     adding     1
## 2         1      adult     2
## 3         1        ago     1
## 4         1    alcohol     1
## 5         1  allegedly     1
## 6         1      allen     1
## 7         1 apparently     2
## 8         1   appeared     1
## 9         1   arrested     1
## 10        1    assault     1
## # ... with 302,021 more rows

Notice that we now have a tidy three-column tbl_df, with variables document, term, and count. This tidying operation is similar to the melt function from the reshape2 package (Wickham 2007) for non-sparse matrices.

As we’ve seen in chapters 2-5, this form is convenient for analysis with the dplyr and tidytext packages. For example, you can perform sentiment analysis on these newspaper articles.

ap_sentiments <- ap_td %>%
  inner_join(get_sentiments("bing"), by = c(term = "word"))

ap_sentiments

## # A tibble: 30,094 × 4
##    document    term count sentiment
##       <int>   <chr> <dbl>     <chr>
## 1         1 assault     1  negative
## 2         1 complex     1  negative
## 3         1   death     1  negative
## 4         1    died     1  negative
## 5         1    good     2  positive
## 6         1 illness     1  negative
## 7         1  killed     2  negative
## 8         1    like     2  positive
## 9         1   liked     1  positive
## 10        1 miracle     1  positive
## # ... with 30,084 more rows
…
A tidier is also available for the dfm (document-feature matrix) class from the quanteda package (Benoit and Nulty 2016). Consider the corpus of presidential inauguration speeches that comes with the quanteda package:

library(methods)

data("inaugCorpus", package = "quanteda")
d <- quanteda::dfm(inaugCorpus)

d

## Document-feature matrix of: 57 documents, 9,215 features.

tidy(d)

## # A tibble: 43,719 × 3
##           document            term count
##              <chr>           <chr> <dbl>
## 1  1789-Washington fellow-citizens     1
## 2       1797-Adams fellow-citizens     3
## 3   1801-Jefferson fellow-citizens     2
## 4     1809-Madison fellow-citizens     1
## 5     1813-Madison fellow-citizens     1
## 6      1817-Monroe fellow-citizens     5
## 7      1821-Monroe fellow-citizens     1
## 8    1841-Harrison fellow-citizens    11
## 9        1845-Polk fellow-citizens     1
## 10     1849-Taylor fellow-citizens     1
## # ... with 43,709 more rows

We could find the words most specific to several inaugural speeches using bind_tf_idf from chapter 4:

speeches <- c("1861-Lincoln", "1945-Roosevelt",
              "1961-Kennedy", "2009-Obama")

inaug_tf_idf <- tidy(d) %>%
  bind_tf_idf(term, document, count) %>%
  arrange(desc(tf_idf)) %>%
  filter(document %in% speeches)

inaug_tf_idf

## # A tibble: 2,690 × 6
##          document         term count          tf      idf      tf_idf
##             <chr>        <chr> <dbl>       <dbl>    <dbl>       <dbl>
## 1  1945-Roosevelt      learned     5 0.009009009 1.845827 0.016629069
## 2  1945-Roosevelt        trend     2 0.003603604 3.349904 0.012071726
## 3  1945-Roosevelt         test     3 0.005405405 2.097141 0.011335898
## 4    1961-Kennedy        sides     8 0.005865103 1.845827 0.010825963
## 5  1945-Roosevelt     mistakes     2 0.003603604 2.944439 0.010610591
## 6  1945-Roosevelt       upward     2 0.003603604 2.656757 0.009573899
## 7  1945-Roosevelt         gain     2 0.003603604 2.433613 0.008769778
## 8  1945-Roosevelt   well-being     2 0.003603604 2.251292 0.008112763
## 9  1945-Roosevelt    faintness     1 0.001801802 4.043051 0.007284777
## 10 1945-Roosevelt schoolmaster     1 0.001801802 4.043051 0.007284777
## # ... with 2,680 more rows
…
6.2 Casting tidy text data into a DocumentTermMatrix

Some existing text mining tools or algorithms work only on sparse document-term matrices. Therefore, tidytext provides cast_ verbs for converting from a tidy form to these matrices.

For example, we could take the tidied AP dataset and cast it back into a document-term matrix:

ap_td

## # A tibble: 302,031 × 3
##    document       term count
##       <int>      <chr> <dbl>
## 1         1     adding     1
## 2         1      adult     2
## 3         1        ago     1
## 4         1    alcohol     1
## 5         1  allegedly     1
## 6         1      allen     1
## 7         1 apparently     2
## 8         1   appeared     1
## 9         1   arrested     1
## 10        1    assault     1
## # ... with 302,021 more rows
…
Another variation of a corpus object is corpus from the quanteda package:

library(quanteda)

data("inaugCorpus")

inaugCorpus

## Corpus consisting of 57 documents and 3 docvars.

inaug_td <- tidy(inaugCorpus)
inaug_td

## # A tibble: 57 × 4
##                                                                                                                                                        text
## *                                                                                                                                                     <chr>
## 1  Fellow-Citizens of the Senate and of the House of Representatives:\n\nAmong the vicissitudes incident to life no event could have filled me with greater
## 2    Fellow citizens, I am again called upon by the voice of my country to execute the functions of its Chief Magistrate. When the occasion proper for it s
## 3    When it was first perceived, in early times, that no middle course for America remained between unlimited submission to a foreign legislature and a to
## 4  Friends and Fellow Citizens:\n\nCalled upon to undertake the duties of the first executive office of our country, I avail myself of the presence of that
## 5    Proceeding, fellow citizens, to that qualification which the Constitution requires before my entrance on the charge again conferred on me, it is my du
## 6    Unwilling to depart from examples of the most revered authority, I avail myself of the occasion now presented to express the profound impression made 
## 7    About to add the solemnity of an oath to the obligations imposed by a second call to the station in which my country heretofore placed me, I find in t
## 8    I should be destitute of feeling if I was not deeply affected by the strong proof which my fellow-citizens have given me of their confidence in callin
## 9    Fellow citizens, I shall not attempt to describe the grateful emotions which the new and very distinguished proof of the confidence of my fellow citiz
## 10   In compliance with an usage coeval with the existence of our Federal Constitution, and sanctioned by the example of my predecessors in the career upon
## # ... with 47 more rows, and 3 more variables: Year <int>, President <chr>, FirstName <chr>

This lets us work with tidy tools like unnest_tokens to analyze the text alongside the metadata.

inaug_words <- inaug_td %>%
  unnest_tokens(word, text) %>%
  anti_join(stop_words)

inaug_words

## # A tibble: 49,621 × 4
##     Year President FirstName         word
##    <int>     <chr>     <chr>        <chr>
## 1   2013     Obama    Barack        waves
## 2   2013     Obama    Barack     realizes
## 3   2013     Obama    Barack philadelphia
## 4   2013     Obama    Barack          400
## 5   2013     Obama    Barack           40
## 6   2013     Obama    Barack   absolutism
## 7   2013     Obama    Barack      contour
## 8   2013     Obama    Barack      newtown
## 9   2013     Obama    Barack        lanes
## 10  2013     Obama    Barack   appalachia
## # ... with 49,611 more rows
…
library(tidyr)

inaug_freq <- inaug_words %>%
  count(Year, word) %>%
  ungroup() %>%
  complete(Year, word, fill = list(n = 0)) %>%
  group_by(Year) %>%
  mutate(year_total = sum(n),
         percent = n / year_total) %>%
  ungroup()

inaug_freq %>%
  filter(word == "america")

## # A tibble: 57 × 5
##     Year    word     n year_total     percent
##    <int>   <chr> <dbl>      <dbl>       <dbl>
## 1   1789 america     0        529 0.000000000
## 2   1793 america     1         51 0.019607843
## 3   1797 america     5        863 0.005793743
## 4   1801 america     0        634 0.000000000
## 5   1805 america     0        796 0.000000000
## 6   1809 america     0        436 0.000000000
## 7   1813 america     0        456 0.000000000
## 8   1817 america     0       1197 0.000000000
## 9   1821 america     2       1578 0.001267427
## 10  1825 america     0       1153 0.000000000
## # ... with 47 more rows
…
