Tidy Text Mining with R
…
            Tidy Text Mining with R

3 Sentiment analysis with tidy data

3.1 The sentiments dataset

There are a variety of methods and dictionaries that exist for evaluating the opinion or emotion in text. The tidytext package contains three sentiment lexicons in the sentiments dataset.

library(tidytext)

sentiments

## # A tibble: 23,165 × 4
##           word sentiment lexicon score
##          <chr>     <chr>   <chr> <int>
## 1       abacus     trust     nrc    NA
## 2      abandon      fear     nrc    NA
## 3      abandon  negative     nrc    NA
## 4      abandon   sadness     nrc    NA
## 5    abandoned     anger     nrc    NA
## 6    abandoned      fear     nrc    NA
## 7    abandoned  negative     nrc    NA
## 8    abandoned   sadness     nrc    NA
## 9  abandonment     anger     nrc    NA
## 10 abandonment      fear     nrc    NA
## # ... with 23,155 more rows

The three lexicons are

AFINN from Finn Årup Nielsen,

bing from Bing Liu and collaborators, and

nrc from Saif Mohammad and Peter Turney.

All three of these lexicons are based on unigrams (or single words). These lexicons contain many English words and the words are assigned scores for positive/negative sentiment, and also possibly emotions like joy, anger, sadness, and so forth. The nrc lexicon categorizes words in a binary fashion (“yes”/“no”) into categories of positive, negative, anger, anticipation, disgust, fear, joy, sadness, surprise, and trust. The bing lexicon categorizes words in a binary fashion into positive and negative categories. The AFINN lexicon assigns words with a score that runs between -5 and 5, with negative scores indicating negative sentiment and positive scores indicating positive sentiment. All of this information is tabulated in the sentiments dataset, and tidytext provides a function get_sentiments() to get specific sentiment lexicons without the columns that are not used in that lexicon.

get_sentiments("afinn")

## # A tibble: 2,476 × 2
##          word score
##         <chr> <int>
## 1     abandon    -2
## 2   abandoned    -2
## 3    abandons    -2
## 4    abducted    -2
## 5   abduction    -2
## 6  abductions    -2
## 7       abhor    -3
## 8    abhorred    -3
## 9   abhorrent    -3
## 10     abhors    -3
## # ... with 2,466 more rows

get_sentiments("bing")

## # A tibble: 6,788 × 2
##           word sentiment
##          <chr>     <chr>
## 1      2-faced  negative
## 2      2-faces  negative
## 3           a+  positive
## 4     abnormal  negative
## 5      abolish  negative
## 6   abominable  negative
## 7   abominably  negative
## 8    abominate  negative
## 9  abomination  negative
## 10       abort  negative
## # ... with 6,778 more rows

get_sentiments("nrc")

## # A tibble: 13,901 × 2
##           word sentiment
##          <chr>     <chr>
## 1       abacus     trust
## 2      abandon      fear
## 3      abandon  negative
## 4      abandon   sadness
## 5    abandoned     anger
## 6    abandoned      fear
## 7    abandoned  negative
## 8    abandoned   sadness
## 9  abandonment     anger
## 10 abandonment      fear
## # ... with 13,891 more rows
…
nrcjoy <- get_sentiments("nrc") %>% 
  filter(sentiment == "joy")

tidy_books %>%
  filter(book == "Emma") %>%
  semi_join(nrcjoy) %>%
  count(word, sort = TRUE)

## # A tibble: 303 × 2
##       word     n
##      <chr> <int>
## 1     good   359
## 2    young   192
## 3   friend   166
## 4     hope   143
## 5    happy   125
## 6     love   117
## 7     deal    92
## 8    found    92
## 9  present    89
## 10    kind    82
## # ... with 293 more rows
…
TODO: The three different methods of calculating sentiment give results that are different in an absolute sense but have similar relative trajectories through the novel.

3.3 Most common positive and negative words

One advantage of having the data frame with both sentiment and word is that we can analyze word counts that contribute to each sentiment.

bing_word_counts <- tidy_books %>%
  inner_join(get_sentiments("bing")) %>%
  count(word, sentiment, sort = TRUE) %>%
  ungroup()

bing_word_counts

## # A tibble: 2,585 × 3
##        word sentiment     n
##       <chr>     <chr> <int>
## 1      miss  negative  1855
## 2      well  positive  1523
## 3      good  positive  1380
## 4     great  positive   981
## 5      like  positive   725
## 6    better  positive   639
## 7    enough  positive   613
## 8     happy  positive   534
## 9      love  positive   495
## 10 pleasure  positive   462
## # ... with 2,575 more rows
…
