Tidy Text Mining with R
…
book_words <- austen_books() %>%
  unnest_tokens(word, text) %>%
  count(book, word, sort = TRUE) %>%
  ungroup()

total_words <- book_words %>% 
  group_by(book) %>% 
  summarize(total = sum(n))
book_words <- left_join(book_words, total_words)
book_words

## # A tibble: 40,379 × 4
##                 book  word     n  total
##               <fctr> <chr> <int>  <int>
## 1     Mansfield Park   the  6206 160460
## 2     Mansfield Park    to  5475 160460
## 3     Mansfield Park   and  5438 160460
## 4               Emma    to  5239 160996
## 5               Emma   the  5201 160996
## 6               Emma   and  4896 160996
## 7     Mansfield Park    of  4778 160460
## 8  Pride & Prejudice   the  4331 122204
## 9               Emma    of  4291 160996
## 10 Pride & Prejudice    to  4162 122204
## # ... with 40,369 more rows
…
There are very long tails to the right for these novels (those extremely common words!) that we have not shown in these plots. These plots exhibit similar distributions for all the novels, with many words that occur rarely and fewer words that occur frequently.

4.3 The bind_tf_idf function

The idea of tf-idf is to find the important words for the content of each document by decreasing the weight for commonly used words and increasing the weight for words that are not used very much in a collection or corpus of documents, in this case, the group of Jane Austen’s novels as a whole. Calculating tf-idf attempts to find the words that are important (i.e., common) in a text, but not too common. Let’s do that now.

book_words <- book_words %>%
  bind_tf_idf(word, book, n)
book_words

## # A tibble: 40,379 × 7
##                 book  word     n  total         tf   idf tf_idf
##               <fctr> <chr> <int>  <int>      <dbl> <dbl>  <dbl>
## 1     Mansfield Park   the  6206 160460 0.03867631     0      0
## 2     Mansfield Park    to  5475 160460 0.03412065     0      0
## 3     Mansfield Park   and  5438 160460 0.03389007     0      0
## 4               Emma    to  5239 160996 0.03254118     0      0
## 5               Emma   the  5201 160996 0.03230515     0      0
## 6               Emma   and  4896 160996 0.03041069     0      0
## 7     Mansfield Park    of  4778 160460 0.02977689     0      0
## 8  Pride & Prejudice   the  4331 122204 0.03544074     0      0
## 9               Emma    of  4291 160996 0.02665284     0      0
## 10 Pride & Prejudice    to  4162 122204 0.03405780     0      0
## # ... with 40,369 more rows

Notice that idf and thus tf-idf are zero for these extremely common words. These are all words that appear in all six of Jane Austen’s novels, so the idf term (which will then be the natural log of 1) is zero. The inverse document frequency (and thus tf-idf) is very low (near zero) for words that occur in many of the documents in a collection; this is how this approach decreases the weight for common words. The inverse document frequency will be a higher number for words that occur in fewer of the documents in the collection. Let’s look at terms with high tf-idf in Jane Austen’s works.

book_words %>%
  select(-total) %>%
  arrange(desc(tf_idf))

## # A tibble: 40,379 × 6
##                   book      word     n          tf      idf      tf_idf
##                 <fctr>     <chr> <int>       <dbl>    <dbl>       <dbl>
## 1  Sense & Sensibility    elinor   623 0.005193528 1.791759 0.009305552
## 2  Sense & Sensibility  marianne   492 0.004101470 1.791759 0.007348847
## 3       Mansfield Park  crawford   493 0.003072417 1.791759 0.005505032
## 4    Pride & Prejudice     darcy   373 0.003052273 1.791759 0.005468939
## 5           Persuasion    elliot   254 0.003036207 1.791759 0.005440153
## 6                 Emma      emma   786 0.004882109 1.098612 0.005363545
## 7     Northanger Abbey    tilney   196 0.002519928 1.791759 0.004515105
## 8                 Emma    weston   389 0.002416209 1.791759 0.004329266
## 9    Pride & Prejudice    bennet   294 0.002405813 1.791759 0.004310639
## 10          Persuasion wentworth   191 0.002283132 1.791759 0.004090824
## # ... with 40,369 more rows
…
This is a pretty diverse bunch. They may all be physics classics, but they were written across a 300-year timespan, and some of them were first written in other languages and then translated to English. Perfectly homogeneous these are not, but that doesn’t stop this from being an interesting exercise!

library(gutenbergr)
physics <- gutenberg_download(c(37729, 14725, 13476, 5001), 
                              meta_fields = "author")

physics_words <- physics %>%
  unnest_tokens(word, text) %>%
  count(author, word, sort = TRUE) %>%
  ungroup()

physics_words

## # A tibble: 12,592 × 3
##                 author  word     n
##                  <chr> <chr> <int>
## 1     Galilei, Galileo   the  3760
## 2        Tesla, Nikola   the  3604
## 3  Huygens, Christiaan   the  3553
## 4     Einstein, Albert   the  2994
## 5     Galilei, Galileo    of  2049
## 6     Einstein, Albert    of  2030
## 7        Tesla, Nikola    of  1737
## 8  Huygens, Christiaan    of  1708
## 9  Huygens, Christiaan    to  1207
## 10       Tesla, Nikola     a  1176
## # ... with 12,582 more rows
…
