Text Mining with R
…
## A LDA_VEM topic model with 2 topics.

Fitting the model was the “easy part”: the rest of the analysis will involve exploring and interpreting the model using tidying functions from the tidytext package.

7.1.1 Word-topic probabilities

In Chapter 6 we introduced the tidy() method, originally from the broom package (Robinson et al. 2015), for tidying model objects. The tidytext package provides this method for extracting the per-topic-per-word probabilities, called \(\beta\) (“beta”), from the model.

library(tidytext)

ap_topics <- tidy(ap_lda, matrix = "beta")
ap_topics

## # A tibble: 20,946 × 3
##    topic       term         beta
##    <int>      <chr>        <dbl>
## 1      1      aaron 1.686917e-12
## 2      2      aaron 3.895941e-05
## 3      1    abandon 2.654910e-05
## 4      2    abandon 3.990786e-05
## 5      1  abandoned 1.390663e-04
## 6      2  abandoned 5.876946e-05
## 7      1 abandoning 2.454843e-33
## 8      2 abandoning 2.337565e-05
## 9      1     abbott 2.130484e-06
## 10     2     abbott 2.968045e-05
## # ... with 20,936 more rows
…
This visualization lets us understand the two topics that were extracted from the articles. The most common words in topic 1 include “percent”, “million”, “billion”, and “company”, which suggests it may represent business or financial news. Those most common in topic 2 include “president”, “government”, and “soviet”, suggeting that this topic represents political news. One important observation about the words in each topic is that some words, such as “new” and “people”, are common within both topics. This is an advantage of topic modeling as opposed to “hard clustering” methods: topics used in natural language could have some overlap in terms of words.

As an alternative, we could consider the terms that had the greatest difference in \(\beta\) between topic 1 and topic 2. This can be estimated based on the log ratio of the two: \(\log_2(\frac{\beta_2}{\beta_1})\) (a log ratio is useful because it makes the difference symmetrical: \(\beta_2\) being twice as large leads to a log ratio of 1, while \(\beta_1\) being twice as large results in -1). To constrain it to a set of especially relevant words, we can filter for relatively common words, such as those that have a \(\beta\) greater than 1/1000 in at least one topic.

library(tidyr)

beta_spread <- ap_topics %>%
  mutate(topic = paste0("topic", topic)) %>%
  spread(topic, beta) %>%
  filter(topic1 > .001 | topic2 > .001) %>%
  mutate(log_ratio = log2(topic2 / topic1))

beta_spread

## # A tibble: 198 × 4
##              term       topic1       topic2   log_ratio
##             <chr>        <dbl>        <dbl>       <dbl>
## 1  administration 4.309502e-04 1.382244e-03   1.6814189
## 2             ago 1.065216e-03 8.421279e-04  -0.3390353
## 3       agreement 6.714984e-04 1.039024e-03   0.6297728
## 4             aid 4.759043e-05 1.045958e-03   4.4580091
## 5             air 2.136933e-03 2.966593e-04  -2.8486628
## 6        american 2.030497e-03 1.683884e-03  -0.2700405
## 7        analysts 1.087581e-03 5.779708e-07 -10.8778386
## 8            area 1.371397e-03 2.310280e-04  -2.5695069
## 9            army 2.622192e-04 1.048089e-03   1.9989152
## 10          asked 1.885803e-04 1.559209e-03   3.0475641
## # ... with 188 more rows
…
Figure 7.2: Words with the greatest difference in \(\beta\) between topic 2 and topic 1

We can see that the words more common in topic 2 include political parties such as “democratic” and “republican”, as well as politician’s names such as “dukakis” and “gorbachev”. Topic 1 was more characterized by currencies like “yen” and “dollar”, as well as financial terms such as “index”, “prices” and “rates”. This helps confirm that the two topics the algorithm identified were political and financial news.

7.1.2 Document-topic probabilities

Besides estimating each topic as a mixture of words, LDA also models each document as a mixture of topics. We can examine the per-document-per-topic probabilities, called \(\gamma\) (“gamma”), with the matrix = "gamma" argument to tidy().

ap_documents <- tidy(ap_lda, matrix = "gamma")
ap_documents

## # A tibble: 4,492 × 3
##    document topic        gamma
##       <int> <int>        <dbl>
## 1         1     1 0.2480616686
## 2         2     1 0.3615485445
## 3         3     1 0.5265844180
## 4         4     1 0.3566530023
## 5         5     1 0.1812766762
## 6         6     1 0.0005883388
## 7         7     1 0.7734215655
## 8         8     1 0.0044516994
## 9         9     1 0.9669915139
## 10       10     1 0.1468904793
## # ... with 4,482 more rows

Each of these values is an estimated proportion of words from that document that are generated from that topic. For example, the model estimates that only about 24.8% of the words in document 1 were generated from topic 1.

We can see that many of these documents were drawn from a mix of the two topics, but that document 6 was drawn almost entirely from topic 2, having a \(\gamma\) from topic 1 close to zero. To check this answer, we could tidy() the document-term matrix (see Chapter 6.1) and check what the most common words in that document were.

tidy(AssociatedPress) %>%
  filter(document == 6) %>%
  arrange(desc(count))

## # A tibble: 287 × 3
##    document           term count
##       <int>          <chr> <dbl>
## 1         6        noriega    16
## 2         6         panama    12
## 3         6        jackson     6
## 4         6         powell     6
## 5         6 administration     5
## 6         6       economic     5
## 7         6        general     5
## 8         6              i     5
## 9         6     panamanian     5
## 10        6       american     4
## # ... with 277 more rows
…
# split into words
by_chapter_word <- by_chapter %>%
  unnest_tokens(word, text)

# find document-word counts
word_counts <- by_chapter_word %>%
  anti_join(stop_words) %>%
  count(document, word, sort = TRUE) %>%
  ungroup()

word_counts

## # A tibble: 104,721 × 3
##                    document    word     n
##                       <chr>   <chr> <int>
## 1     Great Expectations_57     joe    88
## 2      Great Expectations_7     joe    70
## 3     Great Expectations_17   biddy    63
## 4     Great Expectations_27     joe    58
## 5     Great Expectations_38 estella    58
## 6      Great Expectations_2     joe    56
## 7     Great Expectations_23  pocket    53
## 8     Great Expectations_15     joe    50
## 9     Great Expectations_18     joe    50
## 10 The War of the Worlds_16 brother    50
## # ... with 104,711 more rows
…
We can then use the LDA() function to create a four-topic model. In this case we know we’re looking for four topics because there are four books; in other problems we may need to try a few different values of k.

chapters_lda <- LDA(chapters_dtm, k = 4, control = list(seed = 1234))
chapters_lda

## A LDA_VEM topic model with 4 topics.

Much as we did on the Associated Press data, we can examine per-topic-per-word probabilities.

chapter_topics <- tidy(chapters_lda, matrix = "beta")
chapter_topics

## # A tibble: 72,860 × 3
##    topic    term         beta
##    <int>   <chr>        <dbl>
## 1      1     joe 5.830326e-17
## 2      2     joe 3.194447e-57
## 3      3     joe 4.162676e-24
## 4      4     joe 1.445030e-02
## 5      1   biddy 7.846976e-27
## 6      2   biddy 4.672244e-69
## 7      3   biddy 2.259711e-46
## 8      4   biddy 4.767972e-03
## 9      1 estella 3.827272e-06
## 10     2 estella 5.316964e-65
## # ... with 72,850 more rows
…
Figure 7.3: The terms that are most common within each topic

These topics are pretty clearly associated with the four books! There’s no question that the topic of “captain”, “nautilus”, “sea”, and “nemo” belongs to Twenty Thousand Leagues Under the Sea, and that “jane”, “darcy”, and “elizabeth” belongs to Pride and Prejudice. We see “pip” and “joe” from Great Expectations and “martians”, “black”, and “night” from The War of the Worlds. We also notice that, in line with LDA being a “fuzzy clustering” method, there can be words in common between multiple topics, such as “miss” in topics 1 and 4, and “time” in topics 3 and 4.

7.2.2 Per-document classification

Each document in this analysis represented a single chapter. Thus, we may want to know which topics are associated with each document. Can we put the chapters back together in the correct books? We can find this by examining the per-document-per-topic probabilities, \(\gamma\) (“gamma”).

chapters_gamma <- tidy(chapters_lda, matrix = "gamma")
chapters_gamma

## # A tibble: 772 × 3
##                    document topic        gamma
##                       <chr> <int>        <dbl>
## 1     Great Expectations_57     1 1.351886e-05
## 2      Great Expectations_7     1 1.470726e-05
## 3     Great Expectations_17     1 2.117127e-05
## 4     Great Expectations_27     1 1.919746e-05
## 5     Great Expectations_38     1 3.544403e-01
## 6      Great Expectations_2     1 1.723723e-05
## 7     Great Expectations_23     1 5.507241e-01
## 8     Great Expectations_15     1 1.682503e-02
## 9     Great Expectations_18     1 1.272044e-05
## 10 The War of the Worlds_16     1 1.084337e-05
## # ... with 762 more rows

Each of these values is an estimated proportion of words from that document that are generated from that topic. For example, the model estimates that each word in the Great Expectations_57 document has only a 0.00135% probability of coming from topic 1 (Pride and Prejudice).

Now that we have these topic-probabilities, we can see how well our unsupervised learning did at distinguishing the four books. We’d expect that chapters within a book would be found to be mostly (or entirely), generated from the corresponding topic.

First we re-separate the document name into title and chapter, after which we can visualize the per-document-per-topic probability for each (Figure 7.4).

chapters_gamma <- chapters_gamma %>%
  separate(document, c("title", "chapter"), sep = "_", convert = TRUE)

chapters_gamma

## # A tibble: 772 × 4
##                    title chapter topic        gamma
## *                  <chr>   <int> <int>        <dbl>
## 1     Great Expectations      57     1 1.351886e-05
## 2     Great Expectations       7     1 1.470726e-05
## 3     Great Expectations      17     1 2.117127e-05
## 4     Great Expectations      27     1 1.919746e-05
## 5     Great Expectations      38     1 3.544403e-01
## 6     Great Expectations       2     1 1.723723e-05
## 7     Great Expectations      23     1 5.507241e-01
## 8     Great Expectations      15     1 1.682503e-02
## 9     Great Expectations      18     1 1.272044e-05
## 10 The War of the Worlds      16     1 1.084337e-05
## # ... with 762 more rows
…
Figure 7.4: The gamma probabilities for each chapter within each book

We notice that almost all of the chapters from Pride and Prejudice, War of the Worlds, and Twenty Thousand Leagues Under the Sea were uniquely identified as a single topic each.

It does look like some chapters from Great Expectations (which should be topic 4) were somewhat associated with other topics. Are there any cases where the topic most associated with a chapter belonged to another book? First we’d find the topic that was most associated with each chapter using top_n(), which is effectively the “classification” of that chapter.

chapter_classifications <- chapters_gamma %>%
  group_by(title, chapter) %>%
  top_n(1, gamma) %>%
  ungroup()

chapter_classifications

## # A tibble: 193 × 4
##                  title chapter topic     gamma
##                  <chr>   <int> <int>     <dbl>
## 1   Great Expectations      23     1 0.5507241
## 2  Pride and Prejudice      43     1 0.9999610
## 3  Pride and Prejudice      18     1 0.9999654
## 4  Pride and Prejudice      45     1 0.9999038
## 5  Pride and Prejudice      16     1 0.9999466
## 6  Pride and Prejudice      29     1 0.9999300
## 7  Pride and Prejudice      10     1 0.9999203
## 8  Pride and Prejudice       8     1 0.9999134
## 9  Pride and Prejudice      56     1 0.9999337
## 10 Pride and Prejudice      47     1 0.9999506
## # ... with 183 more rows
…
We see that only two chapters from Great Expectations were misclassified, as LDA described one as coming from the “Pride and Prejudice” topic (topic 1) and one from The War of the Worlds (topic 3). That’s not bad for unsupervised clustering!

7.2.3 By word assignments: augment

One step of the LDA algorithm is assigning each word in each document to a topic. The more words in a document are assigned to that topic, generally, the more weight (gamma) will go on that document-topic classification.

We may want to take the original document-word pairs and find which words in each document were assigned to which topic. This is the job of the augment() function, which also originated in the broom package as a way of tidying model output. While tidy() retrieves the statistical components of the model, augment() uses a model to add information to each observation in the original data.

assignments <- augment(chapters_lda, data = chapters_dtm)
assignments

## # A tibble: 104,721 × 4
##                 document  term count .topic
##                    <chr> <chr> <dbl>  <dbl>
## 1  Great Expectations_57   joe    88      4
## 2   Great Expectations_7   joe    70      4
## 3  Great Expectations_17   joe     5      4
## 4  Great Expectations_27   joe    58      4
## 5   Great Expectations_2   joe    56      4
## 6  Great Expectations_23   joe     1      4
## 7  Great Expectations_15   joe    50      4
## 8  Great Expectations_18   joe    50      4
## 9   Great Expectations_9   joe    44      4
## 10 Great Expectations_13   joe    40      4
## # ... with 104,711 more rows

This returns a tidy data frame of book-term counts, but adds an extra column: .topic, with the topic each term was assigned to within each document. (Extra columns added by augment always start with ., to prevent overwriting existing columns). We can combine this assignments table with the consensus book titles to find which words were incorrectly classified.

assignments <- assignments %>%
  separate(document, c("title", "chapter"), sep = "_", convert = TRUE) %>%
  inner_join(book_topics, by = c(".topic" = "topic"))

assignments

## # A tibble: 104,721 × 6
##                 title chapter  term count .topic          consensus
##                 <chr>   <int> <chr> <dbl>  <dbl>              <chr>
## 1  Great Expectations      57   joe    88      4 Great Expectations
## 2  Great Expectations       7   joe    70      4 Great Expectations
## 3  Great Expectations      17   joe     5      4 Great Expectations
## 4  Great Expectations      27   joe    58      4 Great Expectations
## 5  Great Expectations       2   joe    56      4 Great Expectations
## 6  Great Expectations      23   joe     1      4 Great Expectations
## 7  Great Expectations      15   joe    50      4 Great Expectations
## 8  Great Expectations      18   joe    50      4 Great Expectations
## 9  Great Expectations       9   joe    44      4 Great Expectations
## 10 Great Expectations      13   joe    40      4 Great Expectations
## # ... with 104,711 more rows
…
Each row of this table represents the true book each word came from, and each column represents what row it was assigned to. We notice that almost all the words for Pride and Prejudice, Twenty Thousand Leagues Under the Sea, and War of the Worlds were correctly assigned, while Great Expectations had a fair amount of misassignment (which, as we saw above, led to two chapters getting misclassified).

What were the most commonly mistaken words?

wrong_words <- assignments %>%
  filter(title != consensus)

wrong_words

## # A tibble: 4,535 × 6
##                                    title chapter     term count .topic
##                                    <chr>   <int>    <chr> <dbl>  <dbl>
## 1                     Great Expectations      38  brother     2      1
## 2                     Great Expectations      22  brother     4      1
## 3                     Great Expectations      23     miss     2      1
## 4                     Great Expectations      22     miss    23      1
## 5  Twenty Thousand Leagues under the Sea       8     miss     1      1
## 6                     Great Expectations      31     miss     1      1
## 7                     Great Expectations       5 sergeant    37      1
## 8                     Great Expectations      46  captain     1      2
## 9                     Great Expectations      32  captain     1      2
## 10                 The War of the Worlds      17  captain     5      2
##                                consensus
##                                    <chr>
## 1                    Pride and Prejudice
## 2                    Pride and Prejudice
## 3                    Pride and Prejudice
## 4                    Pride and Prejudice
## 5                    Pride and Prejudice
## 6                    Pride and Prejudice
## 7                    Pride and Prejudice
## 8  Twenty Thousand Leagues under the Sea
## 9  Twenty Thousand Leagues under the Sea
## 10 Twenty Thousand Leagues under the Sea
## # ... with 4,525 more rows

wrong_words %>%
  count(title, consensus, term, wt = count) %>%
  ungroup() %>%
  arrange(desc(n))

## # A tibble: 3,500 × 4
##                 title             consensus     term     n
##                 <chr>                 <chr>    <chr> <dbl>
## 1  Great Expectations   Pride and Prejudice     love    44
## 2  Great Expectations   Pride and Prejudice sergeant    37
## 3  Great Expectations   Pride and Prejudice     lady    32
## 4  Great Expectations   Pride and Prejudice     miss    26
## 5  Great Expectations The War of the Worlds     boat    25
## 6  Great Expectations   Pride and Prejudice   father    19
## 7  Great Expectations The War of the Worlds    water    19
## 8  Great Expectations   Pride and Prejudice     baby    18
## 9  Great Expectations   Pride and Prejudice  flopson    18
## 10 Great Expectations   Pride and Prejudice   family    16
## # ... with 3,490 more rows
…
