Tidy Text Mining with R
…
Now we can calculate word frequencies for each person. First, we group by person and count how many times each person used each word. Then we use left_join to add a column of the total number of words used by each person. (This is higher for Julia than David since she has more tweets than David.) Finally, we calculate a frequency for each person and word.

frequency <- tidy_tweets %>% 
  group_by(person) %>% 
  count(word, sort = TRUE) %>% 
  left_join(tidy_tweets %>% 
              group_by(person) %>% 
              summarise(total = n())) %>%
  mutate(freq = n/total)

frequency

## Source: local data frame [23,084 x 5]
## Groups: person [2]
## 
##    person           word     n total        freq
##     <chr>          <chr> <int> <int>       <dbl>
## 1   Julia           time   567 76439 0.007417679
## 2   Julia    @selkie1970   565 76439 0.007391515
## 3   Julia       @skedman   518 76439 0.006776645
## 4   Julia            day   470 76439 0.006148694
## 5   Julia           baby   410 76439 0.005363754
## 6   David        #rstats   359 21984 0.016330058
## 7   Julia     @doctormac   342 76439 0.004474156
## 8   David @hadleywickham   306 21984 0.013919214
## 9   Julia           love   303 76439 0.003963945
## 10  Julia   @haleynburke   291 76439 0.003806957
## # ... with 23,074 more rows

This is a nice, tidy data frame but we would actually like to plot those frequencies on the x- and y-axes of a plot, so we will need to use spread from tidyr make a differently shaped dataframe.

library(tidyr)

frequency <- frequency %>% 
  select(person, word, freq) %>% 
  spread(person, freq) %>%
  arrange(Julia, David)

frequency

## # A tibble: 19,565 × 3
##              word        David        Julia
##             <chr>        <dbl>        <dbl>
## 1    @_aaronmiles 4.548763e-05 1.308233e-05
## 2     @_cingraham 4.548763e-05 1.308233e-05
## 3      @amandacox 4.548763e-05 1.308233e-05
## 4      @antoviral 4.548763e-05 1.308233e-05
## 5    @astrobiased 4.548763e-05 1.308233e-05
## 6     @astrokatie 4.548763e-05 1.308233e-05
## 7           @b0rk 4.548763e-05 1.308233e-05
## 8      @benhamner 4.548763e-05 1.308233e-05
## 9       @calli993 4.548763e-05 1.308233e-05
## 10 @clarecorthell 4.548763e-05 1.308233e-05
## # ... with 19,555 more rows
…
What are some words that are about equally likely to come from David or Julia’s account?

word_ratios %>% 
  arrange(abs(logratio))

## # A tibble: 275 × 4
##           word       David       Julia     logratio
##          <chr>       <dbl>       <dbl>        <dbl>
## 1         nice 0.005979499 0.005938634  0.006857602
## 2     hamilton 0.001993166 0.001979545  0.006857602
## 3        table 0.001993166 0.001979545  0.006857602
## 4     tomorrow 0.001993166 0.001979545  0.006857602
## 5         word 0.002562642 0.002639393 -0.029510042
## 6          yep 0.002562642 0.002639393 -0.029510042
## 7         true 0.003416856 0.003299241  0.035028479
## 8        words 0.003416856 0.003299241  0.035028479
## 9  programming 0.002847380 0.002969317 -0.041932562
## 10      python 0.002847380 0.002969317 -0.041932562
## # ... with 265 more rows
…
words_by_time

## # A tibble: 719 × 6
##    time_floor person    word count time_total word_total
##        <dttm>  <chr>   <chr> <int>      <int>      <int>
## 1  2016-01-01  David #rstats     4        243        385
## 2  2016-01-01  David   broom     1        243         37
## 3  2016-01-01  David    cran     1        243         35
## 4  2016-01-01  David    data     2        243        251
## 5  2016-01-01  David     day     2        243         53
## 6  2016-01-01  David    feel     1        243         36
## 7  2016-01-01  David ggplot2     1        243         55
## 8  2016-01-01  David     job     2        243         33
## 9  2016-01-01  David    love     1        243         52
## 10 2016-01-01  David  people     1        243         80
## # ... with 709 more rows

Each row in this dataframe corresponds to one person using one word in a given time bin. The count column tells us how many times that person used that word in that time bin, the time_total column tells us how many words that person used during that time bin, and the word_total column tells us how many times that person used that word over the whole year. This is the data set we can use for modeling.

We can use nest from tidyr to make a data frame with a list column that contains little miniature data frames for each word. Let’s do that now and take a look at the resulting structure.

nested_models <- words_by_time %>%
  nest(-word, -person) 

nested_models

## # A tibble: 70 × 3
##    person    word              data
##     <chr>   <chr>            <list>
## 1   David #rstats <tibble [18 × 4]>
## 2   David   broom <tibble [15 × 4]>
## 3   David    cran <tibble [11 × 4]>
## 4   David    data <tibble [15 × 4]>
## 5   David     day  <tibble [9 × 4]>
## 6   David    feel  <tibble [8 × 4]>
## 7   David ggplot2 <tibble [13 × 4]>
## 8   David     job  <tibble [8 × 4]>
## 9   David    love <tibble [11 × 4]>
## 10  David  people <tibble [13 × 4]>
## # ... with 60 more rows
…
Now that we have this second, smaller set of only recent tweets, let’s use unnest_tokens to transform these tweets to a tidy data set. (Let’s also remove any retweets from this data set so we only look at tweets that David and Julia have posted directly.)

tidy_tweets <- tweets %>% 
  filter(!str_detect(text, "^RT")) %>%
  mutate(text = str_replace_all(text, "https://t.co/[A-Za-z\\d]+|http://[A-Za-z\\d]+|&amp;|&lt;|&gt;|RT|https", "")) %>%
  unnest_tokens(word, text, token = "regex", pattern = reg) %>%
  anti_join(stop_words)

tidy_tweets

## # A tibble: 30,725 × 7
##              id          created_at             source retweets favorites person        word
##           <dbl>              <dttm>              <chr>    <int>     <int>  <chr>       <chr>
## 1  8.043967e+17 2016-12-01 18:48:07 Twitter Web Client        4         6  David         j's
## 2  8.043611e+17 2016-12-01 16:26:39 Twitter Web Client        8        12  David   bangalore
## 3  8.043611e+17 2016-12-01 16:26:39 Twitter Web Client        8        12  David      london
## 4  8.043435e+17 2016-12-01 15:16:48 Twitter for iPhone        0         1  David @rodneyfort
## 5  8.043120e+17 2016-12-01 13:11:37 Twitter for iPhone        0         1  Julia         sho
## 6  8.040632e+17 2016-11-30 20:43:03 Twitter Web Client        0         2  David       arbor
## 7  8.040632e+17 2016-11-30 20:43:03 Twitter Web Client        0         2  David       arbor
## 8  8.040632e+17 2016-11-30 20:43:03 Twitter Web Client        0         2  David         ann
## 9  8.040632e+17 2016-11-30 20:43:03 Twitter Web Client        0         2  David         ann
## 10 8.040582e+17 2016-11-30 20:23:14 Twitter Web Client       30        41  David          sf
## # ... with 30,715 more rows
…
Now let’s find the median number of retweets for each word and person; we probably want to count each tweet/word combination only once, so we will use group_by and summarise twice, one right after the other. Next, we can join this to the data frame of retweet totals.

word_by_rts <- tidy_tweets %>% 
  group_by(id, word, person) %>% 
  summarise(rts = first(retweets)) %>% 
  group_by(person, word) %>% 
  summarise(retweets = median(rts)) %>%
  left_join(totals) %>%
  filter(retweets != 0) %>%
  ungroup()

word_by_rts %>% 
  arrange(desc(retweets))

## # A tibble: 2,422 × 4
##    person         word retweets total_rts
##     <chr>        <chr>    <dbl>     <int>
## 1   David      angrier   1757.0    111863
## 2   David     confirms    878.5    111863
## 3   David       writes    878.5    111863
## 4   David        voted    611.0    111863
## 5   David       county    534.0    111863
## 6   David      teacher    390.5    111863
## 7   David      command    344.0    111863
## 8   David       revert    344.0    111863
## 9   David  dimensional    320.5    111863
## 10  David eigenvectors    320.5    111863
## # ... with 2,412 more rows
…
