Text Mining with R
…
read_folder <- function(infolder) {
  message(infolder)
  data_frame(file = dir(infolder, full.names = TRUE)) %>%
    mutate(text = map(file, read_lines)) %>%
    transmute(id = basename(file), text) %>%
    unnest(text)
}

raw_text <- data_frame(folder = dir(training_folder, full.names = TRUE)) %>%
  unnest(map(folder, read_folder)) %>%
  transmute(newsgroup = basename(folder), id, text)

raw_text

## # A tibble: 511,655 × 3
##      newsgroup    id                                                               text
##          <chr> <chr>                                                              <chr>
## 1  alt.atheism 49960                                 From: mathew <mathew@mantis.co.uk>
## 2  alt.atheism 49960                        Subject: Alt.Atheism FAQ: Atheist Resources
## 3  alt.atheism 49960    Summary: Books, addresses, music -- anything related to atheism
## 4  alt.atheism 49960 Keywords: FAQ, atheism, books, music, fiction, addresses, contacts
## 5  alt.atheism 49960                             Expires: Thu, 29 Apr 1993 11:57:19 GMT
## 6  alt.atheism 49960                                                Distribution: world
## 7  alt.atheism 49960                   Organization: Mantis Consultants, Cambridge. UK.
## 8  alt.atheism 49960                          Supersedes: <19930301143317@mantis.co.uk>
## 9  alt.atheism 49960                                                         Lines: 290
## 10 alt.atheism 49960                                                                   
## # ... with 511,645 more rows
…
library(tidytext)

usenet_words <- cleaned_text %>%
  unnest_tokens(word, text) %>%
  filter(str_detect(word, "[a-z']$"),
         !word %in% stop_words$word)

10.2 Analyses

Now that we’ve removed the headers, signatures, and formatting, we can start exploring common words. For starters, we could find the most common words in the entire dataset, or within particular newsgroups.

usenet_words %>%
  count(word, sort = TRUE)

## # A tibble: 68,137 × 2
##           word     n
##          <chr> <int>
## 1       people  3655
## 2         time  2705
## 3          god  1626
## 4       system  1595
## 5      program  1103
## 6          bit  1097
## 7  information  1094
## 8      windows  1088
## 9   government  1084
## 10       space  1072
## # ... with 68,127 more rows

words_by_newsgroup <- usenet_words %>%
  count(newsgroup, word, sort = TRUE) %>%
  ungroup()

words_by_newsgroup

## # A tibble: 173,913 × 3
##                  newsgroup      word     n
##                      <chr>     <chr> <int>
## 1   soc.religion.christian       god   917
## 2                sci.space     space   840
## 3    talk.politics.mideast    people   728
## 4                sci.crypt       key   704
## 5  comp.os.ms-windows.misc   windows   625
## 6    talk.politics.mideast  armenian   582
## 7                sci.crypt        db   549
## 8    talk.politics.mideast   turkish   514
## 9                rec.autos       car   509
## 10   talk.politics.mideast armenians   509
## # ... with 173,903 more rows

10.2.1 Term frequency and inverse document frequency: tf-idf

We’d expect the newsgroups to differ in terms of topic and content, and therefore for the frequency of words to differ between them. Let’s try quantifying this using the tf-idf metric we learned about in Chapter .

tf_idf <- words_by_newsgroup %>%
  bind_tf_idf(word, newsgroup, n) %>%
  arrange(desc(tf_idf))

tf_idf

## # A tibble: 173,913 × 6
##                   newsgroup           word     n          tf      idf     tf_idf
##                       <chr>          <chr> <int>       <dbl>    <dbl>      <dbl>
## 1  comp.sys.ibm.pc.hardware           scsi   483 0.017616807 1.203973 0.02121016
## 2     talk.politics.mideast       armenian   582 0.008048902 2.302585 0.01853328
## 3           rec.motorcycles           bike   324 0.013898421 1.203973 0.01673332
## 4     talk.politics.mideast      armenians   509 0.007039332 2.302585 0.01620866
## 5                 sci.crypt     encryption   410 0.008160990 1.897120 0.01548238
## 6          rec.sport.hockey            nhl   157 0.004396651 2.995732 0.01317119
## 7        talk.politics.misc stephanopoulos   158 0.004162276 2.995732 0.01246906
## 8           rec.motorcycles          bikes    97 0.004160947 2.995732 0.01246508
## 9          rec.sport.hockey         hockey   270 0.007561119 1.609438 0.01216915
## 10           comp.windows.x          oname   136 0.003535498 2.995732 0.01059141
## # ... with 173,903 more rows
…
According to this analysis, the “misc.forsale” newsgroup was the most positive. This was most likely because

10.3.1 Sentiment analysis by word

It’s worth looking deeper to understand why some newsgroups ended up more positive or negative than others. For that, we can examine the total positive and negative contributions of each word.

contributions <- usenet_words %>%
  inner_join(AFINN, by = "word") %>%
  group_by(word) %>%
  summarize(occurences = n(),
            contribution = sum(score))

contributions

## # A tibble: 1,909 × 3
##         word occurences contribution
##        <chr>      <int>        <int>
## 1    abandon         13          -26
## 2  abandoned         19          -38
## 3   abandons          3           -6
## 4  abduction          2           -4
## 5      abhor          4          -12
## 6   abhorred          1           -3
## 7  abhorrent          2           -6
## 8  abilities         16           32
## 9    ability        177          354
## 10    aboard          8            8
## # ... with 1,899 more rows
…
Figure 10.4: Words with the greatest contributions to positive/negative sentiment scores in the Usenet text

These words look generally reasonable as indicators of each message’s sentiment, but we can spot possible problems with the approach. “True” could just as easily be a part of “not true” or a similar negative expression, and the words “God” and “Jesus” are apparently very common on Usenet but could easily be used in many contexts, positive or negative.

We may also care about which words contributed the most within each newsgroup, so that we can see which newsgroups might be incorrectly estimated. We can calculate each word’s contribution to each newsgroup’s sentiment scorem and visualize the top few from each (Figure ).

top_sentiment_words <- words_by_newsgroup %>%
  inner_join(AFINN, by = "word") %>%
  mutate(contribution = score * n / sum(n))

top_sentiment_words

## # A tibble: 13,063 × 5
##                 newsgroup   word     n score contribution
##                     <chr>  <chr> <int> <int>        <dbl>
## 1  soc.religion.christian    god   917     1  0.014418012
## 2  soc.religion.christian  jesus   440     1  0.006918130
## 3      talk.politics.guns    gun   425    -1 -0.006682285
## 4      talk.religion.misc    god   296     1  0.004654015
## 5             alt.atheism    god   268     1  0.004213770
## 6  soc.religion.christian  faith   257     1  0.004040817
## 7      talk.religion.misc  jesus   256     1  0.004025094
## 8   talk.politics.mideast killed   202    -3 -0.009528152
## 9   talk.politics.mideast    war   187    -2 -0.005880411
## 10 soc.religion.christian   true   179     2  0.005628842
## # ... with 13,053 more rows
…
sentiment_messages <- usenet_words %>%
  inner_join(AFINN, by = "word") %>%
  group_by(newsgroup, id) %>%
  summarize(sentiment = mean(score),
            words = n()) %>%
  ungroup() %>%
  filter(words >= 5)

As a simple measure to reduce the role of randomness, we filtered out messages that had fewer than five words that contributed to sentiment. What were the most positive messages?

sentiment_messages %>%
  arrange(desc(sentiment))

## # A tibble: 3,554 × 4
##                  newsgroup     id sentiment words
##                      <chr>  <chr>     <dbl> <int>
## 1         rec.sport.hockey  53560  3.888889    18
## 2         rec.sport.hockey  53602  3.833333    30
## 3         rec.sport.hockey  53822  3.833333     6
## 4         rec.sport.hockey  53645  3.230769    13
## 5                rec.autos 102768  3.200000     5
## 6             misc.forsale  75965  3.000000     5
## 7             misc.forsale  76037  3.000000     5
## 8       rec.sport.baseball 104458  3.000000    11
## 9         rec.sport.hockey  53571  3.000000     5
## 10 comp.os.ms-windows.misc   9620  2.857143     7
## # ... with 3,544 more rows
…
It looks like this message was chosen because it uses the word “winner” many, many times! How about the most negative message? Turns out it’s also from the hockey site, but has a very different attitude.

sentiment_messages %>%
  arrange(sentiment)

## # A tibble: 3,554 × 4
##                newsgroup     id sentiment words
##                    <chr>  <chr>     <dbl> <int>
## 1       rec.sport.hockey  53907 -3.000000     6
## 2        sci.electronics  53899 -3.000000     5
## 3  talk.politics.mideast  75918 -3.000000     7
## 4              rec.autos 101627 -2.833333     6
## 5          comp.graphics  37948 -2.800000     5
## 6         comp.windows.x  67204 -2.700000    10
## 7     talk.politics.guns  53362 -2.666667     6
## 8            alt.atheism  51309 -2.600000     5
## 9  comp.sys.mac.hardware  51513 -2.600000     5
## 10             rec.autos 102883 -2.600000     5
## # ... with 3,544 more rows
…
